# Fdb version 3
["pdflatex"] 1668546860 "povzetek.tex" "povzetek.pdf" "povzetek" 1668546860
  "/usr/local/texlive/2022/texmf-dist/web2c/texmf.cnf" 1646502317 40171 cdab547de63d26590bebb3baff566530 ""
  "/usr/local/texlive/2022/texmf-var/web2c/pdftex/pdflatex.fmt" 1650359216 2826443 dee4e0c33e42a5da2cdcd7f75fa59f90 ""
  "/usr/local/texlive/2022/texmf.cnf" 1647878952 577 209b46be99c9075fd74d4c0369380e8c ""
  "povzetek.aux" 1668546860 32 3985256e7290058c681f74d7a3565a19 ""
  "povzetek.tex" 1668539283 1649 0260871264e4f9b8609a32166c65bc60 ""
  (generated)
  "povzetek.log"
  "povzetek.pdf"
