# Fdb version 3
["bibtex thesis_template"] 1670321716 "thesis_template.aux" "thesis_template.bbl" "thesis_template" 1670322420
  "/usr/local/texlive/2022/texmf-dist/bibtex/bst/elsarticle/elsarticle-num.bst" 1606256092 29462 43db4fe246825ec69ed81b2463c17f04 ""
  "bibliography.bib" 1669805832 25016 562c9308d4a0a855dcffbca5b53d6961 ""
  "thesis_template.aux" 1670322420 89910 52d3b561e2058c599342ce7ef93c8ea0 "pdflatex"
  (generated)
  "thesis_template.bbl"
  "thesis_template.blg"
["pdflatex"] 1670322418 "thesis_template.tex" "thesis_template.pdf" "thesis_template" 1670322420
  "/dev/null" 0 -1 0 ""
  "/usr/local/texlive/2022/texmf-dist/fonts/enc/dvips/cm-super/cm-super-ts1.enc" 1136849721 2900 1537cc8184ad1792082cd229ecc269f4 ""
  "/usr/local/texlive/2022/texmf-dist/fonts/map/fontname/texfonts.map" 1577235249 3524 cb3e574dea2d1052e39280babc910dc8 ""
  "/usr/local/texlive/2022/texmf-dist/fonts/tfm/jknappen/ec/tcrm1000.tfm" 1136768653 1536 e07581a4bb3136ece9eeb4c3ffab8233 ""
  "/usr/local/texlive/2022/texmf-dist/fonts/tfm/jknappen/ec/tcrm1200.tfm" 1136768653 1536 74b7293ec3713bb7fdca8dd1bd1f469c ""
  "/usr/local/texlive/2022/texmf-dist/fonts/tfm/public/amsfonts/cmextra/cmex7.tfm" 1246382020 1004 54797486969f23fa377b128694d548df ""
  "/usr/local/texlive/2022/texmf-dist/fonts/tfm/public/amsfonts/cmextra/cmex8.tfm" 1246382020 988 bdf658c3bfc2d96d3c8b02cfc1c94c20 ""
  "/usr/local/texlive/2022/texmf-dist/fonts/tfm/public/amsfonts/symbols/msam10.tfm" 1246382020 916 f87d7c45f9c908e672703b83b72241a3 ""
  "/usr/local/texlive/2022/texmf-dist/fonts/tfm/public/amsfonts/symbols/msam5.tfm" 1246382020 924 9904cf1d39e9767e7a3622f2a125a565 ""
  "/usr/local/texlive/2022/texmf-dist/fonts/tfm/public/amsfonts/symbols/msam7.tfm" 1246382020 928 2dc8d444221b7a635bb58038579b861a ""
  "/usr/local/texlive/2022/texmf-dist/fonts/tfm/public/amsfonts/symbols/msbm10.tfm" 1246382020 908 2921f8a10601f252058503cc6570e581 ""
  "/usr/local/texlive/2022/texmf-dist/fonts/tfm/public/amsfonts/symbols/msbm5.tfm" 1246382020 940 75ac932a52f80982a9f8ea75d03a34cf ""
  "/usr/local/texlive/2022/texmf-dist/fonts/tfm/public/amsfonts/symbols/msbm7.tfm" 1246382020 940 228d6584342e91276bf566bcf9716b83 ""
  "/usr/local/texlive/2022/texmf-dist/fonts/tfm/public/cm/cmbx12.tfm" 1136768653 1324 c910af8c371558dc20f2d7822f66fe64 ""
  "/usr/local/texlive/2022/texmf-dist/fonts/tfm/public/cm/cmcsc10.tfm" 1136768653 1300 63a6111ee6274895728663cf4b4e7e81 ""
  "/usr/local/texlive/2022/texmf-dist/fonts/tfm/public/cm/cmex10.tfm" 1136768653 992 662f679a0b3d2d53c1b94050fdaa3f50 ""
  "/usr/local/texlive/2022/texmf-dist/fonts/tfm/public/cm/cmitt10.tfm" 1136768653 768 2297ad2ac26f37e67f756dad27c77d68 ""
  "/usr/local/texlive/2022/texmf-dist/fonts/tfm/public/cm/cmmi10.tfm" 1136768653 1528 abec98dbc43e172678c11b3b9031252a ""
  "/usr/local/texlive/2022/texmf-dist/fonts/tfm/public/cm/cmmi12.tfm" 1136768653 1524 4414a8315f39513458b80dfc63bff03a ""
  "/usr/local/texlive/2022/texmf-dist/fonts/tfm/public/cm/cmmi6.tfm" 1136768653 1512 f21f83efb36853c0b70002322c1ab3ad ""
  "/usr/local/texlive/2022/texmf-dist/fonts/tfm/public/cm/cmmi8.tfm" 1136768653 1520 eccf95517727cb11801f4f1aee3a21b4 ""
  "/usr/local/texlive/2022/texmf-dist/fonts/tfm/public/cm/cmr10.tfm" 1136768653 1296 45809c5a464d5f32c8f98ba97c1bb47f ""
  "/usr/local/texlive/2022/texmf-dist/fonts/tfm/public/cm/cmr12.tfm" 1136768653 1288 655e228510b4c2a1abe905c368440826 ""
  "/usr/local/texlive/2022/texmf-dist/fonts/tfm/public/cm/cmr17.tfm" 1136768653 1292 296a67155bdbfc32aa9c636f21e91433 ""
  "/usr/local/texlive/2022/texmf-dist/fonts/tfm/public/cm/cmr6.tfm" 1136768653 1300 b62933e007d01cfd073f79b963c01526 ""
  "/usr/local/texlive/2022/texmf-dist/fonts/tfm/public/cm/cmr8.tfm" 1136768653 1292 21c1c5bfeaebccffdb478fd231a0997d ""
  "/usr/local/texlive/2022/texmf-dist/fonts/tfm/public/cm/cmsl12.tfm" 1136768653 1504 f280e6069e577ca4a981806c471fe65c ""
  "/usr/local/texlive/2022/texmf-dist/fonts/tfm/public/cm/cmsy10.tfm" 1136768653 1124 6c73e740cf17375f03eec0ee63599741 ""
  "/usr/local/texlive/2022/texmf-dist/fonts/tfm/public/cm/cmsy6.tfm" 1136768653 1116 933a60c408fc0a863a92debe84b2d294 ""
  "/usr/local/texlive/2022/texmf-dist/fonts/tfm/public/cm/cmsy8.tfm" 1136768653 1120 8b7d695260f3cff42e636090a8002094 ""
  "/usr/local/texlive/2022/texmf-dist/fonts/tfm/public/cm/cmti10.tfm" 1136768653 1480 aa8e34af0eb6a2941b776984cf1dfdc4 ""
  "/usr/local/texlive/2022/texmf-dist/fonts/tfm/public/cm/cmti12.tfm" 1136768653 1484 ed72f8f5cf654cda15ecc8e32bfcbee5 ""
  "/usr/local/texlive/2022/texmf-dist/fonts/tfm/public/cm/cmti7.tfm" 1136768653 1492 86331993fe614793f5e7e755835c31c5 ""
  "/usr/local/texlive/2022/texmf-dist/fonts/tfm/public/cm/cmti8.tfm" 1136768653 1504 1747189e0441d1c18f3ea56fafc1c480 ""
  "/usr/local/texlive/2022/texmf-dist/fonts/tfm/public/cm/cmtt10.tfm" 1136768653 768 1321e9409b4137d6fb428ac9dc956269 ""
  "/usr/local/texlive/2022/texmf-dist/fonts/tfm/public/cm/cmtt12.tfm" 1136768653 772 9a936b7f5e2ff0557fce0f62822f0bbf ""
  "/usr/local/texlive/2022/texmf-dist/fonts/type1/public/amsfonts/cm/cmbx12.pfb" 1248133631 32080 340ef9bf63678554ee606688e7b5339d ""
  "/usr/local/texlive/2022/texmf-dist/fonts/type1/public/amsfonts/cm/cmcsc10.pfb" 1248133631 32001 6aeea3afe875097b1eb0da29acd61e28 ""
  "/usr/local/texlive/2022/texmf-dist/fonts/type1/public/amsfonts/cm/cmitt10.pfb" 1248133631 26057 fad158094905eaf20f4ae3782af0c45c ""
  "/usr/local/texlive/2022/texmf-dist/fonts/type1/public/amsfonts/cm/cmmi10.pfb" 1248133631 36299 5f9df58c2139e7edcf37c8fca4bd384d ""
  "/usr/local/texlive/2022/texmf-dist/fonts/type1/public/amsfonts/cm/cmmi12.pfb" 1248133631 36741 fa121aac0049305630cf160b86157ee4 ""
  "/usr/local/texlive/2022/texmf-dist/fonts/type1/public/amsfonts/cm/cmmi8.pfb" 1248133631 35469 70d41d2b9ea31d5d813066df7c99281c ""
  "/usr/local/texlive/2022/texmf-dist/fonts/type1/public/amsfonts/cm/cmr10.pfb" 1248133631 35752 024fb6c41858982481f6968b5fc26508 ""
  "/usr/local/texlive/2022/texmf-dist/fonts/type1/public/amsfonts/cm/cmr12.pfb" 1248133631 32722 d7379af29a190c3f453aba36302ff5a9 ""
  "/usr/local/texlive/2022/texmf-dist/fonts/type1/public/amsfonts/cm/cmr17.pfb" 1248133631 32362 179c33bbf43f19adbb3825bb4e36e57a ""
  "/usr/local/texlive/2022/texmf-dist/fonts/type1/public/amsfonts/cm/cmr7.pfb" 1248133631 32762 224316ccc9ad3ca0423a14971cfa7fc1 ""
  "/usr/local/texlive/2022/texmf-dist/fonts/type1/public/amsfonts/cm/cmr8.pfb" 1248133631 32726 0a1aea6fcd6468ee2cf64d891f5c43c8 ""
  "/usr/local/texlive/2022/texmf-dist/fonts/type1/public/amsfonts/cm/cmsl12.pfb" 1248133631 34586 5a65dc15601f9c74fe3fb3f37b3b8b6f ""
  "/usr/local/texlive/2022/texmf-dist/fonts/type1/public/amsfonts/cm/cmsy10.pfb" 1248133631 32569 5e5ddc8df908dea60932f3c484a54c0d ""
  "/usr/local/texlive/2022/texmf-dist/fonts/type1/public/amsfonts/cm/cmti10.pfb" 1248133631 37944 359e864bd06cde3b1cf57bb20757fb06 ""
  "/usr/local/texlive/2022/texmf-dist/fonts/type1/public/amsfonts/cm/cmti12.pfb" 1248133631 36118 fad905eba93cff5bce1e185fe980a177 ""
  "/usr/local/texlive/2022/texmf-dist/fonts/type1/public/amsfonts/cm/cmtt10.pfb" 1248133631 31099 c85edf1dd5b9e826d67c9c7293b6786c ""
  "/usr/local/texlive/2022/texmf-dist/fonts/type1/public/amsfonts/cm/cmtt12.pfb" 1248133631 24252 1e4e051947e12dfb50fee0b7f4e26e3a ""
  "/usr/local/texlive/2022/texmf-dist/fonts/type1/public/amsfonts/symbols/msbm10.pfb" 1248133631 34694 ad62b13721ee8eda1dcc8993c8bd7041 ""
  "/usr/local/texlive/2022/texmf-dist/fonts/type1/public/cm-super/sfrm1000.pfb" 1215737283 138258 6525c253f16cededa14c7fd0da7f67b2 ""
  "/usr/local/texlive/2022/texmf-dist/fonts/type1/public/cm-super/sfrm1200.pfb" 1215737283 136101 f533469f523533d38317ab5729d00c8a ""
  "/usr/local/texlive/2022/texmf-dist/tex/context/base/mkii/supp-pdf.mkii" 1461363279 71627 94eb9990bed73c364d7f53f960cc8c5b ""
  "/usr/local/texlive/2022/texmf-dist/tex/generic/atbegshi/atbegshi.sty" 1575674566 24708 5584a51a7101caf7e6bbf1fc27d8f7b1 ""
  "/usr/local/texlive/2022/texmf-dist/tex/generic/babel-english/english.ldf" 1496785618 7008 9ff5fdcc865b01beca2b0fe4a46231d4 ""
  "/usr/local/texlive/2022/texmf-dist/tex/generic/babel-slovenian/slovene.ldf" 1612734893 4834 98ee81640c5ff33462d182c4f24765fe ""
  "/usr/local/texlive/2022/texmf-dist/tex/generic/babel/babel.sty" 1645915365 147649 823237dc86e8acfaa45204ca8085a60e ""
  "/usr/local/texlive/2022/texmf-dist/tex/generic/babel/txtbabel.def" 1643231327 5233 d5e383ed66bf272b71b1a90b596e21c6 ""
  "/usr/local/texlive/2022/texmf-dist/tex/generic/bigintcalc/bigintcalc.sty" 1576625341 40635 c40361e206be584d448876bba8a64a3b ""
  "/usr/local/texlive/2022/texmf-dist/tex/generic/bitset/bitset.sty" 1576016050 33961 6b5c75130e435b2bfdb9f480a09a39f9 ""
  "/usr/local/texlive/2022/texmf-dist/tex/generic/catchfile/catchfile.sty" 1576016007 8622 63834878edeb14dd71d58d8f22bc3e06 ""
  "/usr/local/texlive/2022/texmf-dist/tex/generic/etexcmds/etexcmds.sty" 1576625273 7734 b98cbb34c81f667027c1e3ebdbfce34b ""
  "/usr/local/texlive/2022/texmf-dist/tex/generic/gettitlestring/gettitlestring.sty" 1576625223 8371 9d55b8bd010bc717624922fb3477d92e ""
  "/usr/local/texlive/2022/texmf-dist/tex/generic/iftex/ifluatex.sty" 1572645307 492 1994775aa15b0d1289725a0b1bbc2d4c ""
  "/usr/local/texlive/2022/texmf-dist/tex/generic/iftex/ifpdf.sty" 1572645307 480 5778104efadad304ced77548ca2184b1 ""
  "/usr/local/texlive/2022/texmf-dist/tex/generic/iftex/iftex.sty" 1644112042 7237 bdd120a32c8fdb4b433cf9ca2e7cd98a ""
  "/usr/local/texlive/2022/texmf-dist/tex/generic/infwarerr/infwarerr.sty" 1575499628 8356 7bbb2c2373aa810be568c29e333da8ed ""
  "/usr/local/texlive/2022/texmf-dist/tex/generic/intcalc/intcalc.sty" 1576625065 31769 002a487f55041f8e805cfbf6385ffd97 ""
  "/usr/local/texlive/2022/texmf-dist/tex/generic/kvdefinekeys/kvdefinekeys.sty" 1576878844 5412 d5a2436094cd7be85769db90f29250a6 ""
  "/usr/local/texlive/2022/texmf-dist/tex/generic/kvsetkeys/kvsetkeys.sty" 1576624944 13807 952b0226d4efca026f0e19dd266dcc22 ""
  "/usr/local/texlive/2022/texmf-dist/tex/generic/ltxcmds/ltxcmds.sty" 1600895880 17859 4409f8f50cd365c68e684407e5350b1b ""
  "/usr/local/texlive/2022/texmf-dist/tex/generic/pdfescape/pdfescape.sty" 1576015897 19007 15924f7228aca6c6d184b115f4baa231 ""
  "/usr/local/texlive/2022/texmf-dist/tex/generic/pdftexcmds/pdftexcmds.sty" 1593379760 20089 80423eac55aa175305d35b49e04fe23b ""
  "/usr/local/texlive/2022/texmf-dist/tex/generic/uniquecounter/uniquecounter.sty" 1576624663 7008 f92eaa0a3872ed622bbf538217cd2ab7 ""
  "/usr/local/texlive/2022/texmf-dist/tex/generic/xstring/xstring.sty" 1544223003 123 a302f2c651a95033260db60e51527ae8 ""
  "/usr/local/texlive/2022/texmf-dist/tex/generic/xstring/xstring.tex" 1626900402 48190 9b86e8476d1d94df049e99d192261166 ""
  "/usr/local/texlive/2022/texmf-dist/tex/latex/algorithms/algorithm.sty" 1251330371 3249 15763257e50278eef5db1952ccde229c ""
  "/usr/local/texlive/2022/texmf-dist/tex/latex/algorithms/algorithmic.sty" 1251330371 9318 793e9d5a71e74e730d97f6bf5d7e2bca ""
  "/usr/local/texlive/2022/texmf-dist/tex/latex/amsfonts/amsfonts.sty" 1359763108 5949 3f3fd50a8cc94c3d4cbf4fc66cd3df1c ""
  "/usr/local/texlive/2022/texmf-dist/tex/latex/amsfonts/amssymb.sty" 1359763108 13829 94730e64147574077f8ecfea9bb69af4 ""
  "/usr/local/texlive/2022/texmf-dist/tex/latex/amsfonts/umsa.fd" 1359763108 961 6518c6525a34feb5e8250ffa91731cff ""
  "/usr/local/texlive/2022/texmf-dist/tex/latex/amsfonts/umsb.fd" 1359763108 961 d02606146ba5601b5645f987c92e6193 ""
  "/usr/local/texlive/2022/texmf-dist/tex/latex/amsmath/amsbsy.sty" 1622667781 2222 da905dc1db75412efd2d8f67739f0596 ""
  "/usr/local/texlive/2022/texmf-dist/tex/latex/amsmath/amsgen.sty" 1622667781 4173 bc0410bcccdff806d6132d3c1ef35481 ""
  "/usr/local/texlive/2022/texmf-dist/tex/latex/amsmath/amsmath.sty" 1636758526 87648 07fbb6e9169e00cb2a2f40b31b2dbf3c ""
  "/usr/local/texlive/2022/texmf-dist/tex/latex/amsmath/amsopn.sty" 1636758526 4128 8eea906621b6639f7ba476a472036bbe ""
  "/usr/local/texlive/2022/texmf-dist/tex/latex/amsmath/amstext.sty" 1636758526 2444 926f379cc60fcf0c6e3fee2223b4370d ""
  "/usr/local/texlive/2022/texmf-dist/tex/latex/atveryend/atveryend.sty" 1576191570 19336 ce7ae9438967282886b3b036cfad1e4d ""
  "/usr/local/texlive/2022/texmf-dist/tex/latex/auxhook/auxhook.sty" 1576625391 3935 57aa3c3e203a5c2effb4d2bd2efbc323 ""
  "/usr/local/texlive/2022/texmf-dist/tex/latex/base/atbegshi-ltx.sty" 1636758526 3034 3bfb87122e6fa8758225c0dd3cbaceba ""
  "/usr/local/texlive/2022/texmf-dist/tex/latex/base/atveryend-ltx.sty" 1636758526 2462 754d6b31b2ab5a09bb72c348ace2ec75 ""
  "/usr/local/texlive/2022/texmf-dist/tex/latex/base/bk12.clo" 1636758526 8285 589b019f4c77ae67e70783f50c29f749 ""
  "/usr/local/texlive/2022/texmf-dist/tex/latex/base/book.cls" 1636758526 23268 2b549a0e88d4c803f33b9b907020a582 ""
  "/usr/local/texlive/2022/texmf-dist/tex/latex/base/ifthen.sty" 1622581934 5157 f308c7c04889e16c588e78aa42599fae ""
  "/usr/local/texlive/2022/texmf-dist/tex/latex/base/inputenc.sty" 1622581934 5049 969aec05d5f39c43f8005910498fcf90 ""
  "/usr/local/texlive/2022/texmf-dist/tex/latex/base/textcomp.sty" 1622581934 2894 55431114fc0e491ecee275edafd6c881 ""
  "/usr/local/texlive/2022/texmf-dist/tex/latex/booktabs/booktabs.sty" 1579038678 6078 f1cb470c9199e7110a27851508ed7a5c ""
  "/usr/local/texlive/2022/texmf-dist/tex/latex/caption/caption.sty" 1647548653 54291 b8e5c600d4aa37b48a740dd2a6c26163 ""
  "/usr/local/texlive/2022/texmf-dist/tex/latex/caption/caption3.sty" 1647548653 71241 d2cd3a1c5acef9cb31f945b93c0bb6e3 ""
  "/usr/local/texlive/2022/texmf-dist/tex/latex/cleveref/cleveref.sty" 1525128982 329481 7fc6b003158402a4c694bc0a1b729308 ""
  "/usr/local/texlive/2022/texmf-dist/tex/latex/colortbl/colortbl.sty" 1579991017 10793 d0af3aa11e27ae35ba4685b17597b122 ""
  "/usr/local/texlive/2022/texmf-dist/tex/latex/epstopdf-pkg/epstopdf-base.sty" 1579991033 13886 d1306dcf79a944f6988e688c1785f9ce ""
  "/usr/local/texlive/2022/texmf-dist/tex/latex/etoolbox/etoolbox.sty" 1601931149 46845 3b58f70c6e861a13d927bff09d35ecbc ""
  "/usr/local/texlive/2022/texmf-dist/tex/latex/fancyhdr/fancyhdr.sty" 1612734021 17086 7ed8cbc4d361ec87392817e0dd4f65ec ""
  "/usr/local/texlive/2022/texmf-dist/tex/latex/fancyvrb/fancyvrb.sty" 1640123156 44023 c6f2f55a2bb9630fba10bfd488a5addd ""
  "/usr/local/texlive/2022/texmf-dist/tex/latex/float/float.sty" 1137110151 6749 16d2656a1984957e674b149555f1ea1d ""
  "/usr/local/texlive/2022/texmf-dist/tex/latex/framed/framed.sty" 1338588508 22449 7ec15c16d0d66790f28e90343c5434a3 ""
  "/usr/local/texlive/2022/texmf-dist/tex/latex/fvextra/fvextra.sty" 1549403749 79524 612a4ba14a5e8b8ba4c9cbcd27a9b4b0 ""
  "/usr/local/texlive/2022/texmf-dist/tex/latex/graphics-cfg/color.cfg" 1459978653 1213 620bba36b25224fa9b7e1ccb4ecb76fd ""
  "/usr/local/texlive/2022/texmf-dist/tex/latex/graphics-cfg/graphics.cfg" 1465944070 1224 978390e9c2234eab29404bc21b268d1e ""
  "/usr/local/texlive/2022/texmf-dist/tex/latex/graphics-def/pdftex.def" 1601931164 19103 48d29b6e2a64cb717117ef65f107b404 ""
  "/usr/local/texlive/2022/texmf-dist/tex/latex/graphics/color.sty" 1639603921 7197 eb6c1ebf41667a05cb50c23c19d5e8bc ""
  "/usr/local/texlive/2022/texmf-dist/tex/latex/graphics/graphics.sty" 1622581934 18399 7e40f80366dffb22c0e7b70517db5cb4 ""
  "/usr/local/texlive/2022/texmf-dist/tex/latex/graphics/graphicx.sty" 1636758526 7996 a8fb260d598dcaf305a7ae7b9c3e3229 ""
  "/usr/local/texlive/2022/texmf-dist/tex/latex/graphics/keyval.sty" 1622581934 2671 4de6781a30211fe0ea4c672e4a2a8166 ""
  "/usr/local/texlive/2022/texmf-dist/tex/latex/graphics/lscape.sty" 1622581934 1808 e22d55a4f66156801447813626bd4159 ""
  "/usr/local/texlive/2022/texmf-dist/tex/latex/graphics/trig.sty" 1636758526 4009 187ea2dc3194cd5a76cd99a8d7a6c4d0 ""
  "/usr/local/texlive/2022/texmf-dist/tex/latex/hycolor/hycolor.sty" 1580250785 17914 4c28a13fc3d975e6e81c9bea1d697276 ""
  "/usr/local/texlive/2022/texmf-dist/tex/latex/hyperref/hpdftex.def" 1645564115 49029 7c9e5115b2217efbeb7828ac0d1bf1a0 ""
  "/usr/local/texlive/2022/texmf-dist/tex/latex/hyperref/hyperref.sty" 1645564115 220999 6145ea83914c186e178d1d31c50b37df ""
  "/usr/local/texlive/2022/texmf-dist/tex/latex/hyperref/nameref.sty" 1612734870 13242 133e617c5eebffdd05e421624022b267 ""
  "/usr/local/texlive/2022/texmf-dist/tex/latex/hyperref/pd1enc.def" 1645564115 14132 e8e7e61e51ade521a7238fac8362786c ""
  "/usr/local/texlive/2022/texmf-dist/tex/latex/hyperref/puenc.def" 1645564115 117004 ed1c2cc82bb9836e9d59549dd8c33098 ""
  "/usr/local/texlive/2022/texmf-dist/tex/latex/ifplatform/ifplatform.sty" 1507930826 3910 e04f6a6d983bdbdb024917b7ccc80262 ""
  "/usr/local/texlive/2022/texmf-dist/tex/latex/kvoptions/kvoptions.sty" 1602274869 22521 d2fceb764a442a2001d257ef11db7618 ""
  "/usr/local/texlive/2022/texmf-dist/tex/latex/l3backend/l3backend-pdftex.def" 1644269979 29921 d0acc05a38bd4aa3af2017f0b7c137ce ""
  "/usr/local/texlive/2022/texmf-dist/tex/latex/latexconfig/epstopdf-sys.cfg" 1279039959 678 4792914a8f45be57bb98413425e4c7af ""
  "/usr/local/texlive/2022/texmf-dist/tex/latex/letltxmacro/letltxmacro.sty" 1575499565 5766 13a9e8766c47f30327caf893ece86ac8 ""
  "/usr/local/texlive/2022/texmf-dist/tex/latex/lineno/lineno.sty" 1159951381 151738 8cd767481920f0eb785302dacfc87057 ""
  "/usr/local/texlive/2022/texmf-dist/tex/latex/listings/listings.cfg" 1585170648 1830 e31effa752c61538383451ae21332364 ""
  "/usr/local/texlive/2022/texmf-dist/tex/latex/listings/listings.sty" 1585170648 80964 64e57373f36316e4a09b517cbf1aba2e ""
  "/usr/local/texlive/2022/texmf-dist/tex/latex/listings/lstmisc.sty" 1585170648 77022 ee25ce086f4a79d8cf73bac6f94c02a5 ""
  "/usr/local/texlive/2022/texmf-dist/tex/latex/minted/minted.sty" 1640468509 47156 7304be18b5469336f22dc013f16ae5cc ""
  "/usr/local/texlive/2022/texmf-dist/tex/latex/newfloat/newfloat.sty" 1574630664 28803 4aba56144ead46f9aef76000a36a663a ""
  "/usr/local/texlive/2022/texmf-dist/tex/latex/oberdiek/hypcap.sty" 1575152444 3822 b53c749cd81352b4679a35b0dafefb95 ""
  "/usr/local/texlive/2022/texmf-dist/tex/latex/pdflscape/pdflscape.sty" 1575674318 6575 25396d208d8f2b9395d06ef315d5886c ""
  "/usr/local/texlive/2022/texmf-dist/tex/latex/refcount/refcount.sty" 1576624809 9878 9e94e8fa600d95f9c7731bb21dfb67a4 ""
  "/usr/local/texlive/2022/texmf-dist/tex/latex/rerunfilecheck/rerunfilecheck.sty" 1575674187 9715 b051d5b493d9fe5f4bc251462d039e5f ""
  "/usr/local/texlive/2022/texmf-dist/tex/latex/tools/array.sty" 1636758526 12694 6c23725d50ab9d1e2d3ce482c58ffcf3 ""
  "/usr/local/texlive/2022/texmf-dist/tex/latex/tools/calc.sty" 1622581934 10214 00ce62e730d0cfe22b35e8f1c84949c7 ""
  "/usr/local/texlive/2022/texmf-dist/tex/latex/tools/shellesc.sty" 1622581934 4118 0f286eca74ee36b7743ff20320e5479f ""
  "/usr/local/texlive/2022/texmf-dist/tex/latex/tools/verbatim.sty" 1622581934 7392 39729ae6a807e217edf1442cf8fab2c2 ""
  "/usr/local/texlive/2022/texmf-dist/tex/latex/ucs/data/uni-1.def" 1368571634 8217 66550fdb7fbb026190925f2ed11cc2aa ""
  "/usr/local/texlive/2022/texmf-dist/tex/latex/ucs/data/uni-32.def" 1368571634 8033 ee5a06eead35a732222f876800c8f10f ""
  "/usr/local/texlive/2022/texmf-dist/tex/latex/ucs/data/uni-global.def" 1368571634 1375 8a855db83af5d6753ccbbd32e6a8a901 ""
  "/usr/local/texlive/2022/texmf-dist/tex/latex/ucs/ucs.sty" 1368571634 27982 5723d81d568db410592a59b85fb3eaae ""
  "/usr/local/texlive/2022/texmf-dist/tex/latex/ucs/ucsencs.def" 1368571634 22368 c53c9d0d16c65bef2b157515c9d9f658 ""
  "/usr/local/texlive/2022/texmf-dist/tex/latex/ucs/utf8x.def" 1368571634 8036 21f7ac37aafb6cfeddbb196b8bfd6280 ""
  "/usr/local/texlive/2022/texmf-dist/tex/latex/upquote/upquote.sty" 1334873510 1048 517e01cde97c1c0baf72e69d43aa5a2e ""
  "/usr/local/texlive/2022/texmf-dist/tex/latex/url/url.sty" 1388531844 12796 8edb7d69a20b857904dd0ea757c14ec9 ""
  "/usr/local/texlive/2022/texmf-dist/tex/latex/xcolor/xcolor.sty" 1635798903 56029 3f7889dab51d620aa43177c391b7b190 ""
  "/usr/local/texlive/2022/texmf-dist/tex/latex/xmpincl/xmpincl.sty" 1632428093 2832 d498c59e94b7dfa3b4bcf74380ad6348 ""
  "/usr/local/texlive/2022/texmf-dist/web2c/texmf.cnf" 1646502317 40171 cdab547de63d26590bebb3baff566530 ""
  "/usr/local/texlive/2022/texmf-var/fonts/map/pdftex/updmap/pdftex.map" 1647878959 4410336 7d30a02e9fa9a16d7d1f8d037ba69641 ""
  "/usr/local/texlive/2022/texmf-var/web2c/pdftex/pdflatex.fmt" 1650359216 2826443 dee4e0c33e42a5da2cdcd7f75fa59f90 ""
  "/usr/local/texlive/2022/texmf.cnf" 1647878952 577 209b46be99c9075fd74d4c0369380e8c ""
  "_minted-thesis_template/01F5182E22B446A3D816E4DAED30448332A25B9908FB0192AEDB33BE37D51EF9.pygtex" 1669752776 2237 5535a0a2cebf35342a04f156fb8e9ac3 ""
  "_minted-thesis_template/053DB80B3D3074A142DBFB11AD51C5E232A25B9908FB0192AEDB33BE37D51EF9.pygtex" 1668448376 1103 5fe2312f4c3a6d9ec1666387c0d81a9e ""
  "_minted-thesis_template/07D13647728674DCAD958D9A9F9D0F0232A25B9908FB0192AEDB33BE37D51EF9.pygtex" 1669752776 225 5dccd9e57a8de0a840a957b473ee66be ""
  "_minted-thesis_template/08914B150CDD6888BF32D668C933616932A25B9908FB0192AEDB33BE37D51EF9.pygtex" 1668448376 70 375a8873b8f4dece51bbca4e9cd1b95c ""
  "_minted-thesis_template/08E842036F2A44605246E52927FBD75D32A25B9908FB0192AEDB33BE37D51EF9.pygtex" 1669752776 74 07c5ed26728a1dc3f34f7d84ab4a141e ""
  "_minted-thesis_template/0B271D21D8FCE7BD064952035B3D18CE32A25B9908FB0192AEDB33BE37D51EF9.pygtex" 1668448376 676 ba6f8ef15277a6cec7c96c1b07c2caf7 ""
  "_minted-thesis_template/0D4BB1537C4201CBF45B44530338113232A25B9908FB0192AEDB33BE37D51EF9.pygtex" 1669752776 367 8ea07d5aca1e9e6429a193798ef99e64 ""
  "_minted-thesis_template/0FB7688F4946BD5D55A4C94EB8B1E15C635D81DED571D9EB87EC72F79BDADEAF.pygtex" 1669752776 374 a7d1acbced492d719cd3659b01e31b22 ""
  "_minted-thesis_template/100EAFBC8852147D0E9620AD2F3C840E32A25B9908FB0192AEDB33BE37D51EF9.pygtex" 1669752776 535 3e3689a76aea3a9e2401a96e5642f394 ""
  "_minted-thesis_template/123E51DCED76C0B2CB7701A59C2023E832A25B9908FB0192AEDB33BE37D51EF9.pygtex" 1668448376 126 226444430936017fb81f6bc760073100 ""
  "_minted-thesis_template/123F6C5AE435267C6CCABD0BB3BE511232A25B9908FB0192AEDB33BE37D51EF9.pygtex" 1670321712 658 e052ab7bd2282d15d292996467ef4832 ""
  "_minted-thesis_template/1264CA285112AC8802ABE1FF83DA078D32A25B9908FB0192AEDB33BE37D51EF9.pygtex" 1669752776 443 f222da49d83201b94e55baa3e37b73ae ""
  "_minted-thesis_template/1315A9CD71784A642B0CD377D110746932A25B9908FB0192AEDB33BE37D51EF9.pygtex" 1669752776 585 e25eb1eaaa744e5ae4ddfc1df5a38ee4 ""
  "_minted-thesis_template/13D396C8294A661D859358C8AB1B0A2432A25B9908FB0192AEDB33BE37D51EF9.pygtex" 1668448376 726 4f8aa2de7254c7a87a66d93cee39bd5c ""
  "_minted-thesis_template/1460C3C03FA3231EC89978498FCB62DF32A25B9908FB0192AEDB33BE37D51EF9.pygtex" 1669752776 521 41a7a3eaa68528b4451671cc7023f1f2 ""
  "_minted-thesis_template/146CC35435A5897A632887C26F13FE1332A25B9908FB0192AEDB33BE37D51EF9.pygtex" 1668448376 70 7d752eb651587d88ccf19449e57f3fb9 ""
  "_minted-thesis_template/15A325890424C5D6399596349BA51D8532A25B9908FB0192AEDB33BE37D51EF9.pygtex" 1669752776 3611 e58b5053c0e836a86c52e4c0895f3149 ""
  "_minted-thesis_template/17C537FBC72988FFFEBA154EFA43223A32A25B9908FB0192AEDB33BE37D51EF9.pygtex" 1668448376 69 a691862802e5d877b42205fc3b23bdab ""
  "_minted-thesis_template/186EAA06CE7DCAC33116A7EB11A46B8732A25B9908FB0192AEDB33BE37D51EF9.pygtex" 1669752776 70 677c216064f8cba0049ba995f3330f94 ""
  "_minted-thesis_template/199856558E7F64A88B5B344BFAADC43532A25B9908FB0192AEDB33BE37D51EF9.pygtex" 1669752776 76 8d31d1e943159fb307e345be0d587453 ""
  "_minted-thesis_template/1B1611A1FB1299EE6CB428E61A24352332A25B9908FB0192AEDB33BE37D51EF9.pygtex" 1668448376 285 f2445892b77fd35191a29b5026e29eee ""
  "_minted-thesis_template/1DCCA23355272056F04FE8BF20EDFCE032A25B9908FB0192AEDB33BE37D51EF9.pygtex" 1669752776 69 24f70161bd3ebfee72e6f25ead168552 ""
  "_minted-thesis_template/1E34EE57A0CDD6E9BE0EF096C9EBEFF432A25B9908FB0192AEDB33BE37D51EF9.pygtex" 1668448376 151 6b212180232d85eb6f9b4ea0fd6342f9 ""
  "_minted-thesis_template/1EC0E21E7F12EFB939CD679CE677465E32A25B9908FB0192AEDB33BE37D51EF9.pygtex" 1669752776 70 61b6a856a92fb0b8c9f28dc226d51afb ""
  "_minted-thesis_template/1EF68CB90D4241DA14C923118BAE291332A25B9908FB0192AEDB33BE37D51EF9.pygtex" 1669295905 72 97108c0a214b93c256d152ffb8160f6c ""
  "_minted-thesis_template/2057452F2A117241A87C164C9914C3CF32A25B9908FB0192AEDB33BE37D51EF9.pygtex" 1670321712 303 a1710712a9a8a69e5d19d4022da55746 ""
  "_minted-thesis_template/20D0483C58663113E98AFD5D74A1162A32A25B9908FB0192AEDB33BE37D51EF9.pygtex" 1669752776 6129 4ecbf26426d0dce716596422fb8ce724 ""
  "_minted-thesis_template/21C89CD5AC4303CD0F2898967D9FEC4632A25B9908FB0192AEDB33BE37D51EF9.pygtex" 1669752776 667 392e500509d768450c76380bf12ab5b8 ""
  "_minted-thesis_template/29EFF9C741D432819AD44D962800860932A25B9908FB0192AEDB33BE37D51EF9.pygtex" 1668448376 70 cdbb6fa221219f18ebcb833fde5985a0 ""
  "_minted-thesis_template/2F60C7787704B5A61ED924E88EDC2E8232A25B9908FB0192AEDB33BE37D51EF9.pygtex" 1668448376 273 30c1a6812533e14b9b8985c6ea17e3c8 ""
  "_minted-thesis_template/31AB0AF0938B4CF35729961F0F8C6AA732A25B9908FB0192AEDB33BE37D51EF9.pygtex" 1668448376 129 1c5b70bdf77541880501f62fc86c6097 ""
  "_minted-thesis_template/31D30EEA8D0968D6458E0AD0027C9F8032A25B9908FB0192AEDB33BE37D51EF9.pygtex" 1668448376 70 884fe9fd30725a1d61633e33e92596d8 ""
  "_minted-thesis_template/336505839303335544745DCB25F60A0832A25B9908FB0192AEDB33BE37D51EF9.pygtex" 1668547756 795 381272a57d1c6f0d5b6cea0c967a2b97 ""
  "_minted-thesis_template/339D5DD5D77811025801C35FF9912C2B32A25B9908FB0192AEDB33BE37D51EF9.pygtex" 1668448376 254 a824203ff47ff9916ddc1056fdf031c7 ""
  "_minted-thesis_template/34720559FDD825FA98EECD9D2EAE085432A25B9908FB0192AEDB33BE37D51EF9.pygtex" 1668448376 121 036d370e7e2838e141a81f9a153282fa ""
  "_minted-thesis_template/3525C8CD4DB24DB43471ED17717701FC32A25B9908FB0192AEDB33BE37D51EF9.pygtex" 1669752776 1401 0a63b0f4f902b3ffc58e9b3a78d82f02 ""
  "_minted-thesis_template/35CBAF438F1DF181D6736EEEF9AEF7D532A25B9908FB0192AEDB33BE37D51EF9.pygtex" 1669296216 126 a890a3a31743917c0b11400831fb1411 ""
  "_minted-thesis_template/3E7D4585A1D42237FBBE16C6BE1E195232A25B9908FB0192AEDB33BE37D51EF9.pygtex" 1668448376 68 c5216178ec0752ed5193940aa196ad60 ""
  "_minted-thesis_template/3FEB4A83FAE9AB3D4819013C8FFE4B0B32A25B9908FB0192AEDB33BE37D51EF9.pygtex" 1669752776 1046 9e6b18e295ad5b0b91353d126a216e35 ""
  "_minted-thesis_template/401B30E3B8B5D629635A5C613CDB791932A25B9908FB0192AEDB33BE37D51EF9.pygtex" 1668448376 67 1c7aaf4dfa0ae02f1841ca2b67d0f458 ""
  "_minted-thesis_template/423C76644211DAE8228E14D15678D148635D81DED571D9EB87EC72F79BDADEAF.pygtex" 1669752776 561 cc4b8375f25140735e5094dee2b8b0b4 ""
  "_minted-thesis_template/42E7B6F9F73FF9C0E8D94753F3B7F4EB32A25B9908FB0192AEDB33BE37D51EF9.pygtex" 1668448376 70 2dfbe956499994c2b5efd83f8d42e39a ""
  "_minted-thesis_template/437C6FB0C19C6ED3B54887540DFA34AF32A25B9908FB0192AEDB33BE37D51EF9.pygtex" 1668448376 387 efca903657b70e98cea00879526cd142 ""
  "_minted-thesis_template/43C3F7B8FED0F02D99C784578BCD43F632A25B9908FB0192AEDB33BE37D51EF9.pygtex" 1668448376 126 f57d05f8338aea648e30538ed0f8a010 ""
  "_minted-thesis_template/44F0A30A4661BF0F9356C81D3EBE6E3232A25B9908FB0192AEDB33BE37D51EF9.pygtex" 1668448376 392 4bd791b1b718ac49aeefb785634ab277 ""
  "_minted-thesis_template/456EADE6CF5A69F0DB5A1CDCF75C5D7332A25B9908FB0192AEDB33BE37D51EF9.pygtex" 1668448376 556 1f644414d724993364692b0005d124c5 ""
  "_minted-thesis_template/456F620249522608079B0E9E8B802A8032A25B9908FB0192AEDB33BE37D51EF9.pygtex" 1668448376 703 66b9ce174bb7aa4a069033b54fe32355 ""
  "_minted-thesis_template/456F6A0026C2844F2556910249BE0BEF32A25B9908FB0192AEDB33BE37D51EF9.pygtex" 1668448376 228 7650901bf9456eb3ad0cd9571f433b7d ""
  "_minted-thesis_template/45BEA9D572FDB64F6EDF2BC2B2261E2332A25B9908FB0192AEDB33BE37D51EF9.pygtex" 1668448376 819 9078be6f74d9c713da1950a3e8982171 ""
  "_minted-thesis_template/485BDBACEFE22344F6E78CA58A66924232A25B9908FB0192AEDB33BE37D51EF9.pygtex" 1668448376 67 552650b87ce43997585347753cf3502e ""
  "_minted-thesis_template/49D64BA5747CF603E879037F85579ED932A25B9908FB0192AEDB33BE37D51EF9.pygtex" 1669752776 76 b6f0e6cc33f765cc010d873f2755d41c ""
  "_minted-thesis_template/4DC8884F1E08F8511F2B61493D4B6C7D32A25B9908FB0192AEDB33BE37D51EF9.pygtex" 1668448376 68 44f7db3084b4329b74b54ff4e8bf1a1f ""
  "_minted-thesis_template/4FDEF45FBDDECBD6DC2DF50A6F9F450432A25B9908FB0192AEDB33BE37D51EF9.pygtex" 1668448376 1192 cc1157c246fa7e319254aa3509524bda ""
  "_minted-thesis_template/506A1E0619DF677194C32FBC2524899332A25B9908FB0192AEDB33BE37D51EF9.pygtex" 1668448376 70 999831719acb3c3962a669d991e04750 ""
  "_minted-thesis_template/512E75D17D3089A09E33190D433829D332A25B9908FB0192AEDB33BE37D51EF9.pygtex" 1669752776 2117 09a6c3399cc345ac3c57547b5e9a8c54 ""
  "_minted-thesis_template/58431F30B4DA4F8B0AD28A6EEEF29B4532A25B9908FB0192AEDB33BE37D51EF9.pygtex" 1669752776 1154 902a77cd349588d106701d5b3b7fdb4d ""
  "_minted-thesis_template/58BF2BDDFBA8102F1100BC76ACFD059332A25B9908FB0192AEDB33BE37D51EF9.pygtex" 1669752776 777 aa14ea0c506f194a75e39622bca6eb61 ""
  "_minted-thesis_template/597DFC8E3CD366549D45AFB35B83FEDF635D81DED571D9EB87EC72F79BDADEAF.pygtex" 1668448376 141 73416cced6872028c11d2c077bb42d13 ""
  "_minted-thesis_template/599D0ACC2B0B60E7E41B3344B028690E32A25B9908FB0192AEDB33BE37D51EF9.pygtex" 1669752776 1763 77af74b1392acef9cb9a4eaafd978271 ""
  "_minted-thesis_template/5C04C2956B373EBE87239900886D8C5232A25B9908FB0192AEDB33BE37D51EF9.pygtex" 1668448376 2399 888387ad4edbd47fc9a42dbe85e1bd99 ""
  "_minted-thesis_template/5C6E4E424EC0E29E8B449E5D5F7E8F2132A25B9908FB0192AEDB33BE37D51EF9.pygtex" 1669752776 4349 6c98f0a3e38e2a7ed31d098b62449aca ""
  "_minted-thesis_template/5ED4C3B197C3C89D45FC1925E74C9E5D32A25B9908FB0192AEDB33BE37D51EF9.pygtex" 1669752776 1264 2af8012a14c4f28212959f248aad00a2 ""
  "_minted-thesis_template/5F2326D8B659F7AABB7491DE1A3F46A3635D81DED571D9EB87EC72F79BDADEAF.pygtex" 1668448376 728 df3081c1c84b17741bec7c1fae4df680 ""
  "_minted-thesis_template/6137CDE4893C59F76F005A8123D8E8E632A25B9908FB0192AEDB33BE37D51EF9.pygtex" 1668448376 70 33962dc25b8a8cfea492340dd802aaab ""
  "_minted-thesis_template/631C0384F75FE2374A75161AA8876A1432A25B9908FB0192AEDB33BE37D51EF9.pygtex" 1668547758 449 0c9c6e48fa6dc8fd2a181c23bd59de4f ""
  "_minted-thesis_template/639994A6553221FD95638B28030EAFD232A25B9908FB0192AEDB33BE37D51EF9.pygtex" 1669752776 1404 fc546f6b32c9b89172afa617d98ce62f ""
  "_minted-thesis_template/649B8592F3B63BC2A7C90F6C4435AB7632A25B9908FB0192AEDB33BE37D51EF9.pygtex" 1670321712 118 89d08c3aa8507a50ddc233afa0b21fff ""
  "_minted-thesis_template/659686FF6DFA56464EB9F0B852A4AD3032A25B9908FB0192AEDB33BE37D51EF9.pygtex" 1669752776 74 98c25d755a9706934e88830ad5d5e82c ""
  "_minted-thesis_template/66830368B9DBF0034777DDF4DFA0B0F432A25B9908FB0192AEDB33BE37D51EF9.pygtex" 1668448376 70 97d2fe6fd92cd6f80c09958676a57477 ""
  "_minted-thesis_template/67ED6A44688F60E44021BFC3ADC715D632A25B9908FB0192AEDB33BE37D51EF9.pygtex" 1668547758 115 ebae12f0e3cb704e03f587d5f7105291 ""
  "_minted-thesis_template/684EE9A17DE7E1A16BB57A50368F927332A25B9908FB0192AEDB33BE37D51EF9.pygtex" 1669752776 73 def768733abc20ab84d0b8b8bbc35a7f ""
  "_minted-thesis_template/68F98F76C4C938C9FD53A02BDC77C44532A25B9908FB0192AEDB33BE37D51EF9.pygtex" 1669752776 360 91a3f425040db0244dac4a80852162ff ""
  "_minted-thesis_template/69A904AC9ADFBEFAA69A720E4C13780A32A25B9908FB0192AEDB33BE37D51EF9.pygtex" 1669752578 69 dae47aad35f1d8d54b1e69290517289f ""
  "_minted-thesis_template/6A9C2817A76732E72CDA8BFAADA3710D635D81DED571D9EB87EC72F79BDADEAF.pygtex" 1668448376 504 12646d68ee866c44553b7cfe2ce7d175 ""
  "_minted-thesis_template/6B681E4B68ADFFE849A9BEA510799B7132A25B9908FB0192AEDB33BE37D51EF9.pygtex" 1669752776 535 74f509810fb1929d578a726135a03937 ""
  "_minted-thesis_template/6B981C3EB88B00CA220A77202A564B8E32A25B9908FB0192AEDB33BE37D51EF9.pygtex" 1669752776 75 cab15680bacc9bf03638000849c210d9 ""
  "_minted-thesis_template/6C09B49402B5499F93170A424D161BB732A25B9908FB0192AEDB33BE37D51EF9.pygtex" 1668448376 84 5dcd70e716482af3939e918677b253be ""
  "_minted-thesis_template/6D62F9006F15D3E4D3948D6FA7EBB72E32A25B9908FB0192AEDB33BE37D51EF9.pygtex" 1669752776 77 5305de31a702160f023d5d8458bf4c52 ""
  "_minted-thesis_template/6D65A8DDB434A4BD8718C368E912199332A25B9908FB0192AEDB33BE37D51EF9.pygtex" 1668448376 70 3d4e42072e7006eb6b9fd167cd4db535 ""
  "_minted-thesis_template/6E2AEE8EAAF41D473ADF69B85BF462CD32A25B9908FB0192AEDB33BE37D51EF9.pygtex" 1668448376 84 4ff1234d31d5bf5a8ac4d87e634057df ""
  "_minted-thesis_template/6E7BB525F12FC29A2B9F4C48A57BBC7132A25B9908FB0192AEDB33BE37D51EF9.pygtex" 1668547758 73 411ea860317e0769d4e2cb8371d3f67a ""
  "_minted-thesis_template/6F2145FE786FD95F1214C842362917B232A25B9908FB0192AEDB33BE37D51EF9.pygtex" 1669793956 993 29949f09163bc92374917c7b56c669a6 ""
  "_minted-thesis_template/719081B87EA2084D43855B5FA9B0603432A25B9908FB0192AEDB33BE37D51EF9.pygtex" 1669752776 833 8f916a2a3b8cf5419aab89ac1aeac932 ""
  "_minted-thesis_template/73B05D12E68D60F2F904E7A078F35C3532A25B9908FB0192AEDB33BE37D51EF9.pygtex" 1669752776 546 1cf4f3387f27cb429f9b66b2f1157d6d ""
  "_minted-thesis_template/746D44C75A81C9140BCADF95F0AFEEF332A25B9908FB0192AEDB33BE37D51EF9.pygtex" 1668448376 73 a3ab4238d46d6d3eadb8d20706ae5eea ""
  "_minted-thesis_template/74D9A83219CABAAB06A69FD318873F3332A25B9908FB0192AEDB33BE37D51EF9.pygtex" 1668448376 70 6df3bdbfa90e169cbea2885289d76745 ""
  "_minted-thesis_template/753474E1388FF8F32F2FB3B8B440AE6832A25B9908FB0192AEDB33BE37D51EF9.pygtex" 1668448376 71 4f4851f6c2e146af9b65a8897c94eed8 ""
  "_minted-thesis_template/7A540866E8B5EA6D442057AB8F84F19B32A25B9908FB0192AEDB33BE37D51EF9.pygtex" 1668448376 253 2c516f6b275e022526dba35cfa16485f ""
  "_minted-thesis_template/7A5793923964798EE2FD1C664A91D54E32A25B9908FB0192AEDB33BE37D51EF9.pygtex" 1668448376 195 648acc2059369973ee33bcc0b22caef1 ""
  "_minted-thesis_template/7CE98BFE456169D41A8DE5A3DF6D75ED32A25B9908FB0192AEDB33BE37D51EF9.pygtex" 1669752776 4602 ce406e2f2b5e608281a52912bb5e28d8 ""
  "_minted-thesis_template/7CF0B9A75EAD9D5E7E82A8000D94978632A25B9908FB0192AEDB33BE37D51EF9.pygtex" 1668448376 467 63b8949b541da6ad27f8a4a70e27d9ff ""
  "_minted-thesis_template/7D25A9E7B0D548358E71E9A20B2B9FEF32A25B9908FB0192AEDB33BE37D51EF9.pygtex" 1669752776 1463 333577d7772d843510dabd799cec9066 ""
  "_minted-thesis_template/7E0FB5E00AE68626D2411C17155147AD32A25B9908FB0192AEDB33BE37D51EF9.pygtex" 1669752776 1346 7f5e7b23bc817f111aaf93b6ca903d30 ""
  "_minted-thesis_template/7E372F526976D093473C0966472ED6A532A25B9908FB0192AEDB33BE37D51EF9.pygtex" 1668448376 70 065664454d6756cd8d248fa1e38d443c ""
  "_minted-thesis_template/7E7BC2EDEA94DDBAE209E700C001772732A25B9908FB0192AEDB33BE37D51EF9.pygtex" 1668448376 70 afc301fa9fd43fe927f70151e14f53de ""
  "_minted-thesis_template/7F6E452E8F0948C474EC1D84CBC72832635D81DED571D9EB87EC72F79BDADEAF.pygtex" 1669752776 677 13d73728faf9871fd1150cf2e5645789 ""
  "_minted-thesis_template/803B29A70DB2FE86C86E2AA6575DD49032A25B9908FB0192AEDB33BE37D51EF9.pygtex" 1669752776 75 e4c5fb25e4b6bd8ca049d7a073eb1601 ""
  "_minted-thesis_template/8186FB58469704EB63445385311EDEFA74523CE57B526E7F60EA60B3AE8583AA.pygtex" 1669752776 538 4b74625a4da871db883b59ab437581f6 ""
  "_minted-thesis_template/83B682C333B812824142507C2E27918732A25B9908FB0192AEDB33BE37D51EF9.pygtex" 1669752776 195 40d989024f9abc0910ce0ab9d90d3a13 ""
  "_minted-thesis_template/83D33939F788BDC1FAB3AB65B9FDD07132A25B9908FB0192AEDB33BE37D51EF9.pygtex" 1668547757 257 08c8e988fcc8eec7a520c685c571118b ""
  "_minted-thesis_template/874869F99B3175212BAD85084D77EBBE635D81DED571D9EB87EC72F79BDADEAF.pygtex" 1669752776 364 c68c8c25f88d542862c75a9393b0c4a2 ""
  "_minted-thesis_template/8780E9EF7019AA52BB1255A20CA8C2B432A25B9908FB0192AEDB33BE37D51EF9.pygtex" 1669752776 206 65de022879babd9a1715a9e072944d28 ""
  "_minted-thesis_template/8824C0295BDB8B79517DCF5740DB09ED32A25B9908FB0192AEDB33BE37D51EF9.pygtex" 1668448376 337 b485a2f7a783fbe1cad92f28c2e4bea3 ""
  "_minted-thesis_template/882FC7175994DBBB6C054A20EC170E3A32A25B9908FB0192AEDB33BE37D51EF9.pygtex" 1668448376 302 432e4b924488d36e1f092bf17d08317d ""
  "_minted-thesis_template/897316929176464EBC9AD085F31E728432A25B9908FB0192AEDB33BE37D51EF9.pygtex" 1668448376 69 1de6535b6efe0616b0324fdfa641249a ""
  "_minted-thesis_template/89EA03CA58B7AAB40CAFF93DC446468432A25B9908FB0192AEDB33BE37D51EF9.pygtex" 1668547758 520 aefad769b96d58c15ba72f32e57a9c07 ""
  "_minted-thesis_template/89F83F12676D33B9181ADF349319984332A25B9908FB0192AEDB33BE37D51EF9.pygtex" 1669752776 76 ce1ca0c32e564e013dd693d2cd87f589 ""
  "_minted-thesis_template/8BB6C22CF859C743F208C8665BD8A44232A25B9908FB0192AEDB33BE37D51EF9.pygtex" 1669752776 1619 42d50ecd0e324a0669d0256b7d1dd5e0 ""
  "_minted-thesis_template/8C948CE8AB4928FE60A274A7DC1142BB32A25B9908FB0192AEDB33BE37D51EF9.pygtex" 1668448376 69 85d98c9b89bb65f344c3f8f97c5184bd ""
  "_minted-thesis_template/9057F0A25694333E78EEC69CDE859DD732A25B9908FB0192AEDB33BE37D51EF9.pygtex" 1669752776 72 ccee0064e8f3706b217e9df7942a58d1 ""
  "_minted-thesis_template/906736EA13656AF3CBE3D9B5A62A476B32A25B9908FB0192AEDB33BE37D51EF9.pygtex" 1669296567 902 6774a60f78ad61e0154854f607f264e8 ""
  "_minted-thesis_template/911C6B87FFC3B6023435B05FD45697EF32A25B9908FB0192AEDB33BE37D51EF9.pygtex" 1669752776 74 9896c50ee3fd042314bbbfddada7b371 ""
  "_minted-thesis_template/94E612BA2930FD3AD8BC75241AFFF26432A25B9908FB0192AEDB33BE37D51EF9.pygtex" 1669752776 75 bd1ac3d453e3b24efe2e7707f5d84d66 ""
  "_minted-thesis_template/9575534359B5BEDEE2265BAAF429A26D32A25B9908FB0192AEDB33BE37D51EF9.pygtex" 1668547759 5070 a66f9600546e7072c77a050fc5edc8d5 ""
  "_minted-thesis_template/961ED99799249C11DDCFFB33331891BD32A25B9908FB0192AEDB33BE37D51EF9.pygtex" 1668448376 74 8b8ac77b5ff1dddde75bb6c406bbb157 ""
  "_minted-thesis_template/986EA9870F03EE56BA15AF6A992C37DF32A25B9908FB0192AEDB33BE37D51EF9.pygtex" 1668448376 186 46172b81ec5e96d23ef11c3fdc90b579 ""
  "_minted-thesis_template/9A8AD92C50CAE39AA2C5604FD0AB6D8C32A25B9908FB0192AEDB33BE37D51EF9.pygtex" 1668448376 67 e3c82a0148d0eff5cb31b6d0205996a2 ""
  "_minted-thesis_template/9B5DAAC3E9D4635ED1E31705D1268F4032A25B9908FB0192AEDB33BE37D51EF9.pygtex" 1670321712 284 b3a59dc3d122b4f8e7774966006392ee ""
  "_minted-thesis_template/9B613B552729A691375E6857CDE00DC732A25B9908FB0192AEDB33BE37D51EF9.pygtex" 1669752776 228 37decc55aaa061183be5ea91689a0c90 ""
  "_minted-thesis_template/9C1CA64A32191EA1ABDFD601EA0049F032A25B9908FB0192AEDB33BE37D51EF9.pygtex" 1668448376 71 95f661a8a5b2a0bf40ef7201bfa164d4 ""
  "_minted-thesis_template/9CBC3AAD9D868702809BB870D6439F6432A25B9908FB0192AEDB33BE37D51EF9.pygtex" 1669752776 3424 4ecb5b8352c7dec1ac193e623f2dd55d ""
  "_minted-thesis_template/A3EE7B198C852D782A1F49285E96C5EE635D81DED571D9EB87EC72F79BDADEAF.pygtex" 1669752776 392 9b5dc6de1c0c326e888e0637dd540b0c ""
  "_minted-thesis_template/A9D2F2136E79CBD3CA757955456C3FF032A25B9908FB0192AEDB33BE37D51EF9.pygtex" 1668448376 69 7d47624be33c3823120a06908c66b30b ""
  "_minted-thesis_template/AEACD87EA721D3C6CA03F658B959D75132A25B9908FB0192AEDB33BE37D51EF9.pygtex" 1669752776 636 9c508f7b1418cf7297986de319c3758f ""
  "_minted-thesis_template/AEDE9224ACCDBBD6745299CA3DB48D2532A25B9908FB0192AEDB33BE37D51EF9.pygtex" 1668448376 5246 bf95516b71780d1b751508a04ce64c94 ""
  "_minted-thesis_template/AEF4D5E6DB79875C69F8774586530A1F32A25B9908FB0192AEDB33BE37D51EF9.pygtex" 1669752776 71 d4fc9346573c02b7146cd5a726d57479 ""
  "_minted-thesis_template/B026324C6904B2A9CB4B88D6D61C81D132A25B9908FB0192AEDB33BE37D51EF9.pygtex" 1668448376 69 a8fe0f69bd6cd6e9fde822427202bd2b ""
  "_minted-thesis_template/B15D4A9034BDD1E3B6E02D7E36DB803E32A25B9908FB0192AEDB33BE37D51EF9.pygtex" 1668448376 282 44e0733ca5d5870f53ab74e192c7952b ""
  "_minted-thesis_template/B2FA94A4D11C46F642C583C19B8D5FAC32A25B9908FB0192AEDB33BE37D51EF9.pygtex" 1669752776 228 af2f2e4ed6412225df82f97e3b6544d0 ""
  "_minted-thesis_template/B3136A962C78ED1216A17F6C0E30B9C032A25B9908FB0192AEDB33BE37D51EF9.pygtex" 1669752776 64 b327009ffa1382380508885097cb0a9a ""
  "_minted-thesis_template/B487D5CB15360B78598EF0874BAD35F232A25B9908FB0192AEDB33BE37D51EF9.pygtex" 1668448376 688 f822838e1bf1b3c681a034218e3fe40f ""
  "_minted-thesis_template/BA8D2B9408ED255EE92A112FE7BA59BE32A25B9908FB0192AEDB33BE37D51EF9.pygtex" 1669752776 68 9aeb16cd1c2bd316d737d0f9055382d6 ""
  "_minted-thesis_template/BA948D377CD0544A9A7E1669C44E889332A25B9908FB0192AEDB33BE37D51EF9.pygtex" 1669752776 93 438337eada5ebfd790dbe669a3f91b36 ""
  "_minted-thesis_template/BB11E156BB64C7EAD9AE6F0EE52867DC32A25B9908FB0192AEDB33BE37D51EF9.pygtex" 1668448376 81 edd3c9ff0c08d5f71179215bfc6b2444 ""
  "_minted-thesis_template/BB3780DA35DEAD708012914BF06335DD32A25B9908FB0192AEDB33BE37D51EF9.pygtex" 1668448376 94 6544e23c483a079109ec1cc76d2b7bb8 ""
  "_minted-thesis_template/BCEC470F18AE20F5119CB862EECBF13532A25B9908FB0192AEDB33BE37D51EF9.pygtex" 1669752776 421 c3a9083396952acf2697cfa841cf0d49 ""
  "_minted-thesis_template/BE7D4DBFC43396AB232F17642060D3D5635D81DED571D9EB87EC72F79BDADEAF.pygtex" 1669752776 246 4ee95476d7df4378c659d21de018b35c ""
  "_minted-thesis_template/BF149F80307EB668210E60AFEB00E77632A25B9908FB0192AEDB33BE37D51EF9.pygtex" 1669752776 74 0196b86706cdc06c83c75e673ef69d62 ""
  "_minted-thesis_template/BFC08A411473C601502836A24BC6893C635D81DED571D9EB87EC72F79BDADEAF.pygtex" 1668448376 151 2e3dfcd1e302be80ee92e6a17c459a8e ""
  "_minted-thesis_template/C18E1214A2500C0C3636092222F8A85032A25B9908FB0192AEDB33BE37D51EF9.pygtex" 1668448376 68 4b4fdce68fc4e325a14f82fe44bded05 ""
  "_minted-thesis_template/C218990DA88D1FEA2F75FEE57BFF4A3F635D81DED571D9EB87EC72F79BDADEAF.pygtex" 1669752776 173 5938b985c4973da4676e10100b91698f ""
  "_minted-thesis_template/C22FDE3288B3BFEDCC9186AE7C19019F32A25B9908FB0192AEDB33BE37D51EF9.pygtex" 1669752776 873 df9acb899169a64e86e6708adf02ba91 ""
  "_minted-thesis_template/C60DA309EAEB33ACCDD639EF4A37445B32A25B9908FB0192AEDB33BE37D51EF9.pygtex" 1669752776 679 407e7704749ebec34ed14fb992f77ffc ""
  "_minted-thesis_template/C6F63D918844C018B04ED41CA17E234B32A25B9908FB0192AEDB33BE37D51EF9.pygtex" 1669752776 707 fb707b8da9cc4580902355740f33f5e1 ""
  "_minted-thesis_template/C70E725C0C535255BAC669B88F4FE58432A25B9908FB0192AEDB33BE37D51EF9.pygtex" 1669752776 498 75cbe686d93c6253c6c89fdb795ebf77 ""
  "_minted-thesis_template/C7179992CCA5FCA37036DBA37A8E5D7732A25B9908FB0192AEDB33BE37D51EF9.pygtex" 1669752776 75 e51a6f2ec259b0da4db9fb1f7b3e3515 ""
  "_minted-thesis_template/C86737FC55C53CE542902DE306FF8AC332A25B9908FB0192AEDB33BE37D51EF9.pygtex" 1669752776 300 49a853f6dc211a6a6aa2e52a17e767ab ""
  "_minted-thesis_template/CAE699C6EB8D9B60C947928082074061635D81DED571D9EB87EC72F79BDADEAF.pygtex" 1668547757 257 8558c5688c3d1fb83313df5aec9e0c8b ""
  "_minted-thesis_template/CBB0260005284B74EB5C98243C5DB31A32A25B9908FB0192AEDB33BE37D51EF9.pygtex" 1668448376 715 4de22ad7894675a9f087ed1b6b80ea8a ""
  "_minted-thesis_template/CC3903FAF74E248FF5A1ABFDBE9A496032A25B9908FB0192AEDB33BE37D51EF9.pygtex" 1668448376 358 444378a7a940f46e291a472b229b8f92 ""
  "_minted-thesis_template/CE018A701AE62014304808FBC4EEF96832A25B9908FB0192AEDB33BE37D51EF9.pygtex" 1669752776 2750 2b11192c6a94f6bd538b5b1faa58734e ""
  "_minted-thesis_template/CF80C001D7823B79F842A28CE0895E1832A25B9908FB0192AEDB33BE37D51EF9.pygtex" 1668448376 76 53ba00f1879cc8c3e4cd7624a23c8cfc ""
  "_minted-thesis_template/D1397D26945FDB6639E264D99B66C5DB32A25B9908FB0192AEDB33BE37D51EF9.pygtex" 1668448376 76 fb002e25482af29ecdae620bdd855cea ""
  "_minted-thesis_template/D42F2DA1DF5ECDF29BE4AC27EDDA0C1232A25B9908FB0192AEDB33BE37D51EF9.pygtex" 1668448376 71 95f39fd5158b761d0ad0727dc84da23e ""
  "_minted-thesis_template/D77C8D52C80B062D44ECC409F12D194832A25B9908FB0192AEDB33BE37D51EF9.pygtex" 1669752776 69 e2032e21ab979950948bf76a9ea4078b ""
  "_minted-thesis_template/DBBF8220893D497D403BB9CDF49DB7A432A25B9908FB0192AEDB33BE37D51EF9.pygtex" 1668448376 70 32e05bc9d1082d0e626ea4b6f45c713f ""
  "_minted-thesis_template/DC04CF37AAF1E8F73E04914671AEF87432A25B9908FB0192AEDB33BE37D51EF9.pygtex" 1669752776 686 ad2df933d260842ebafd642bc84661b1 ""
  "_minted-thesis_template/DC8E956070639C9ABD94B20F9BDE564432A25B9908FB0192AEDB33BE37D51EF9.pygtex" 1669752776 1204 f31b9d5cbfbc9251080c086631e25f21 ""
  "_minted-thesis_template/DDF584F99B8A1560F1F37BA3D31481C632A25B9908FB0192AEDB33BE37D51EF9.pygtex" 1668448376 70 9fcb6a6979c417ee597e06c935be4624 ""
  "_minted-thesis_template/E1D3891F553B8B312B12AE5DF2A36D9932A25B9908FB0192AEDB33BE37D51EF9.pygtex" 1669752776 79 af2c370e4c17605cc7198ce347f60842 ""
  "_minted-thesis_template/E31D9A952BE726200A2BED0B82BC1DE632A25B9908FB0192AEDB33BE37D51EF9.pygtex" 1668448376 392 d378bddfba2b452fca9917c26a4ac245 ""
  "_minted-thesis_template/E33FBD3521A6B500938FE0C06AA6FE5732A25B9908FB0192AEDB33BE37D51EF9.pygtex" 1668448376 289 ab3eec636cc18eb90c06def381ce0372 ""
  "_minted-thesis_template/E4552395F52C43924FAF04EB050A338A32A25B9908FB0192AEDB33BE37D51EF9.pygtex" 1669752776 74 89139b31362a3e364e61ec22b0b4dbc1 ""
  "_minted-thesis_template/E50BDFD84C5CA3F11FB56D026081239532A25B9908FB0192AEDB33BE37D51EF9.pygtex" 1668448376 305 7641e396fb9cf14b2e720b8069645628 ""
  "_minted-thesis_template/E8A82A50853A6A02DFBC42B26C45E61632A25B9908FB0192AEDB33BE37D51EF9.pygtex" 1669752776 117 1e6a6598b1a2f3580db30a1973d91c42 ""
  "_minted-thesis_template/EC07BA5C9C1C6926DAD9DCC07267B78932A25B9908FB0192AEDB33BE37D51EF9.pygtex" 1668448376 809 77fabeaa763ee5cd0ba672fd16e3e385 ""
  "_minted-thesis_template/F17C02C6997404F83599B8ABB582A2D2635D81DED571D9EB87EC72F79BDADEAF.pygtex" 1669752776 164 dd86d5a75858d3afa1d62c05c9d0a6bf ""
  "_minted-thesis_template/F1B52BE332729B8A5EC8106DF34C8BCF32A25B9908FB0192AEDB33BE37D51EF9.pygtex" 1669752776 1406 1d08de793725b0195536a89b017d3663 ""
  "_minted-thesis_template/F48886AD28C04BE25A64EEEB8A16107632A25B9908FB0192AEDB33BE37D51EF9.pygtex" 1668448376 561 288bbec2e46700fbeee7332a44824489 ""
  "_minted-thesis_template/F59F3A8C9713A59EE89BEB8A51C7013232A25B9908FB0192AEDB33BE37D51EF9.pygtex" 1668448376 190 a0ae529a8549b425c5b6792e3e55e55c ""
  "_minted-thesis_template/F5FD303216E0D59B2215202865D7557232A25B9908FB0192AEDB33BE37D51EF9.pygtex" 1669752776 75 c30986b15ac36f2c9f6b34f6be2c6b71 ""
  "_minted-thesis_template/F6B66CFE0106267B7D863852802E4C1D32A25B9908FB0192AEDB33BE37D51EF9.pygtex" 1669752776 609 46e52ed9d5c587340f5b5b4fd83f0363 ""
  "_minted-thesis_template/F78FFCB5C1E00AC6DC34B14F9971BF1B32A25B9908FB0192AEDB33BE37D51EF9.pygtex" 1668448376 68 473ad52f1bc5c58f15e83f7063b48a63 ""
  "_minted-thesis_template/F7EFA78F3F291FA63DBC3499E729535032A25B9908FB0192AEDB33BE37D51EF9.pygtex" 1669752776 819 71586b2a93c72b5237c35b79cb42f79f ""
  "_minted-thesis_template/FB0AAE1EA3C1A1569EB6767EB84F7AC832A25B9908FB0192AEDB33BE37D51EF9.pygtex" 1668448376 79 589e4638c338b5b4163957dde7609eb7 ""
  "_minted-thesis_template/FD4E0FCDCD22B3D5CD05C539E26B2D7732A25B9908FB0192AEDB33BE37D51EF9.pygtex" 1669752776 565 c8b1ce1d6e102fa756066173fb3c9d13 ""
  "_minted-thesis_template/FEAF8327DDCDBEDDCC78517E7441EE8432A25B9908FB0192AEDB33BE37D51EF9.pygtex" 1668448376 768 37b4a7628584b5658984bb085cdd3c56 ""
  "_minted-thesis_template/FEB3B0C822AA53877BA627A0DEACC39032A25B9908FB0192AEDB33BE37D51EF9.pygtex" 1669752776 949 61523cc9397747d3c1ccdb6b25f4d6b4 ""
  "_minted-thesis_template/default.pygstyle" 1668448376 6365 683ea4fd81022f120108d52c508c17f9 ""
  "assets//1.pdf" 1669752776 14560 88730a84a605e4bd2a2ccb2a90f6cbf3 ""
  "assets//2.pdf" 1669752776 10243 9a1a5d8aa23304597c76f68bbebb4a9e ""
  "assets//4.pdf" 1669752776 11263 dced0c88a63d371e89845e8de9d568a7 ""
  "assets//5.pdf" 1669752776 14062 40fb77ef855e05ae1c07290a45478db0 ""
  "assets//6.pdf" 1669752776 14612 1e56a0fe564e5540fa08f49d8980f69c ""
  "assets//7.pdf" 1669752776 16713 bb6ad4444977ce3240aa25058a8df83f ""
  "assets//8.pdf" 1669752776 16592 416d39b864b2dacb64eed8154adcda1b ""
  "assets//9.pdf" 1669752776 11571 d957538f1aa20b81b357f96593cbee83 ""
  "assets//closure.pdf" 1669752776 13473 72fb1139072fdb47a5ece309b44f5212 ""
  "assets//lifetimes3.pdf" 1669752776 14026 c4f7466bdb82678a285747af67b65eeb ""
  "assets//sea.pdf" 1669752776 7889 05da0446998d45dd11e9f3e0275a76fe ""
  "assets//tree.pdf" 1669752776 6497 3df3b8ca3be40e1265c2937eee19b8f3 ""
  "cc-licenca/cc_by_30.pdf" 1655917171 3001 ffdebc11bc7a9ee788326c421a0a4fbe ""
  "cc-licenca/cc_cc_30.pdf" 1655917171 3857 af3e03fc3070164b6d88bc77db09445a ""
  "cc-licenca/cc_sa_30.pdf" 1655917171 3257 00f150f1d5142b4fa4100d1712e63a36 ""
  "front_pages/eng/abstract.tex" 1669752776 1686 b74b2f7b7b38ce3c87084a76fc4ebf34 ""
  "front_pages/slo/avtorske_pravice2.tex" 1655917171 1435 9b9b284366bbec0b28109bb79b1fed1d ""
  "front_pages/slo/kratice.tex" 1669752776 429 79fb8b4b254a04fc6e3962dc250f03c3 ""
  "front_pages/slo/naslovnica.tex" 1670322417 1367 1f9a28e08bbf26ba5aa9084080c5f42f ""
  "front_pages/slo/posvetilo.tex" 1669752578 332 2d0f4d4a11bddade489c78fb8b5d83a7 ""
  "front_pages/slo/povzetek.tex" 1669752776 1623 ed6295f97753aacaf22c8be85eebbc62 ""
  "front_pages/slo/zahvala.tex" 1669803582 1233 6f0786ff994cb9f9274e18e234a25f17 ""
  "pdfa-1b.xmp" 1655917171 4334 479cc641e5392dfefe9617dab6275493 ""
  "pdfa-1b.xmpi" 1670322419 2916 f40a29fe7ad97c6c879e309407b2c8ef "pdflatex"
  "style/thesis_front_pages.tex" 1655917172 7805 7ecf7446516325a32cbab383975dd699 ""
  "style/thesis_style.tex" 1669752776 4502 a056942285dd9111276dd53ab81878ea ""
  "thesis_template.aux" 1670322420 89910 52d3b561e2058c599342ce7ef93c8ea0 "pdflatex"
  "thesis_template.bbl" 1670321716 10965 b2b89afc380819d7a066f1c91d74bfee "bibtex thesis_template"
  "thesis_template.out" 1670322420 3383 0f7c0f32de34babd49d4333f2452441b "pdflatex"
  "thesis_template.tex" 1670322393 180716 da81ac4097e4050f9e25fe8c95fe854d ""
  "thesis_template.toc" 1670322420 7113 e6ef39b3136e89547f5b4ccb99841a34 "pdflatex"
  (generated)
  "pdfa-1b.xmpi"
  "thesis_template.aux"
  "thesis_template.log"
  "thesis_template.out"
  "thesis_template.pdf"
  "thesis_template.toc"
