\BOOKMARK [0][-]{chapter*.1}{\376\377\000P\000o\000v\000z\000e\000t\000e\000k}{}% 1
\BOOKMARK [0][-]{section*.3}{\376\377\000A\000b\000s\000t\000r\000a\000c\000t}{}% 2
\BOOKMARK [0][-]{chapter.1}{\376\377\000U\000v\000o\000d}{}% 3
\BOOKMARK [0][-]{chapter.2}{\376\377\000P\000r\000o\000g\000r\000a\000m\000s\000k\000i\000\040\000j\000e\000z\000i\000k\000\040\000B\000a\000n\000g}{}% 4
\BOOKMARK [1][-]{section.2.1}{\376\377\000S\000i\000n\000t\000a\000k\000s\000a}{chapter.2}% 5
